{
  "name": "NewScreen",
  "type": "SCREEN",
  "childs": [],
  "dsgnrIdCntr": 4,
  "header": {
    "elmId": "header",
    "childs": [],
    "dsgnrId": "header",
    "elmType": "PORTION",
    "elmSubType": "HEADER"
  },
  "sidebar": {
    "elmId": "sidebar",
    "childs": [],
    "dsgnrId": "sidebar",
    "elmType": "PORTION",
    "elmSubType": "SIDEBAR"
  },
  "body": {
    "elmId": "body",
    "dsgnrId": "body",
    "childs": [
      {
        "elmId": "panel",
        "elmType": "COMPLEX",
        "elmSubType": "PANEL",
        "dsgnrId": "wt_tab_528_000000001",
        "childs": [
          {
            "rows": [
              {
                "heightType": "fr",
                "heightValue": "1"
              }
            ],
            "cols": [],
            "responsive": "Y",
            "responsivecolcount": 1,
            "colGrpWidths": [
              {
                "colGrpWidth": "cellWidthGroup-1"
              }
            ],
            "elmId": "grid",
            "elmType": "GRID",
            "elmSubType": "GRID",
            "dsgnrId": "wt_tab_528_000000003",
            "childs": [
              {
                "elmId": "cell",
                "elmType": "COMPLEX",
                "elmSubType": "CELL",
                "dsgnrId": "wt_tab_528_000000004",
                "childs": [],
                "xStart": "",
                "xEnd": "",
                "yStart": "",
                "yEnd": "",
                "widescreen": "xle-xl-col12"
              }
            ],
            "id": "wt_tab_528_000000003"
          }
        ]
      }
    ],
    "elmType": "PORTION",
    "elmSubType": "BODY"
  },
  "footer": {
    "elmId": "footer",
    "childs": [],
    "dsgnrId": "footer",
    "elmType": "PORTION",
    "elmSubType": "FOOTER"
  },
  "autoGenerated": false
}